{
	"info": {
		"_postman_id": "5b770aa6-219a-4679-a9c8-8b19b60884e0",
		"name": "Techu backend",
		"schema": "https://schema.getpostman.com/json/collection/v2.1.0/collection.json"
	},
	"item": [
		{
			"name": "GET Products",
			"request": {
				"method": "GET",
				"header": [],
				"url": {
					"raw": "http://localhost:8080/apitechu/v1/products",
					"protocol": "http",
					"host": [
						"localhost"
					],
					"port": "8080",
					"path": [
						"apitechu",
						"v1",
						"products"
					]
				}
			},
			"response": []
		},
		{
			"name": "GET ProductById",
			"request": {
				"method": "GET",
				"header": [],
				"url": {
					"raw": "http://localhost:8080/apitechu/v1/products/5",
					"protocol": "http",
					"host": [
						"localhost"
					],
					"port": "8080",
					"path": [
						"apitechu",
						"v1",
						"products",
						"5"
					]
				}
			},
			"response": []
		},
		{
			"name": "POST createProduct",
			"request": {
				"method": "POST",
				"header": [],
				"body": {
					"mode": "raw",
					"raw": "{\n    \"id\":\"6\",\n    \"desc\":\"iPad pro 10 2021\",\n    \"price\": 1199\n}",
					"options": {
						"raw": {
							"language": "json"
						}
					}
				},
				"url": {
					"raw": "http://localhost:8080/apitechu/v1/products",
					"protocol": "http",
					"host": [
						"localhost"
					],
					"port": "8080",
					"path": [
						"apitechu",
						"v1",
						"products"
					]
				}
			},
			"response": []
		},
		{
			"name": "PUT updateProduct",
			"request": {
				"method": "PUT",
				"header": [],
				"body": {
					"mode": "raw",
					"raw": "{\n    \"id\":\"3\",\n    \"desc\":\"iPad Pro 10 2021\",\n    \"price\": 1199\n}",
					"options": {
						"raw": {
							"language": "json"
						}
					}
				},
				"url": {
					"raw": "http://localhost:8080/apitechu/v1/products/3",
					"protocol": "http",
					"host": [
						"localhost"
					],
					"port": "8080",
					"path": [
						"apitechu",
						"v1",
						"products",
						"3"
					]
				}
			},
			"response": []
		},
		{
			"name": "DELETE deleteProduct",
			"request": {
				"method": "DELETE",
				"header": [],
				"url": {
					"raw": "http://localhost:8080/apitechu/v1/products/4",
					"protocol": "http",
					"host": [
						"localhost"
					],
					"port": "8080",
					"path": [
						"apitechu",
						"v1",
						"products",
						"4"
					]
				}
			},
			"response": []
		},
		{
			"name": "PATCH updateProductAttribute",
			"request": {
				"method": "PATCH",
				"header": [],
				"body": {
					"mode": "raw",
					"raw": "{\n    \"id\":\"77\",\n    \"desc\": \"iPod nano 5th gen\",\n    \"price\": 199\n}",
					"options": {
						"raw": {
							"language": "json"
						}
					}
				},
				"url": {
					"raw": "http://localhost:8080/apitechu/v1/products/1",
					"protocol": "http",
					"host": [
						"localhost"
					],
					"port": "8080",
					"path": [
						"apitechu",
						"v1",
						"products",
						"1"
					]
				}
			},
			"response": []
		},
		{
			"name": "V2 GET Products",
			"request": {
				"method": "GET",
				"header": [],
				"url": {
					"raw": "http://localhost:8080/apitechu/v2/products",
					"protocol": "http",
					"host": [
						"localhost"
					],
					"port": "8080",
					"path": [
						"apitechu",
						"v2",
						"products"
					]
				},
				"description": "ahora co mongo"
			},
			"response": []
		},
		{
			"name": "V2 POST addProduct",
			"request": {
				"method": "POST",
				"header": [],
				"body": {
					"mode": "raw",
					"raw": "{\n    \"id\":\"3\",\n    \"desc\":\"AirPods Max\",\n    \"price\": 599\n}",
					"options": {
						"raw": {
							"language": "json"
						}
					}
				},
				"url": {
					"raw": "http://localhost:8080/apitechu/v2/products",
					"protocol": "http",
					"host": [
						"localhost"
					],
					"port": "8080",
					"path": [
						"apitechu",
						"v2",
						"products"
					]
				}
			},
			"response": []
		},
		{
			"name": "V2 GET ProductById",
			"request": {
				"method": "GET",
				"header": [],
				"url": {
					"raw": "http://localhost:8080/apitechu/v2/products/6",
					"protocol": "http",
					"host": [
						"localhost"
					],
					"port": "8080",
					"path": [
						"apitechu",
						"v2",
						"products",
						"6"
					]
				}
			},
			"response": []
		},
		{
			"name": "V2 PUT updateProduct",
			"request": {
				"method": "PUT",
				"header": [],
				"body": {
					"mode": "raw",
					"raw": "{\n    \"id\":\"1\",\n    \"desc\":\"MacBook Air M1\",\n    \"price\": 899\n}",
					"options": {
						"raw": {
							"language": "json"
						}
					}
				},
				"url": {
					"raw": "http://localhost:8080/apitechu/v2/products/1",
					"protocol": "http",
					"host": [
						"localhost"
					],
					"port": "8080",
					"path": [
						"apitechu",
						"v2",
						"products",
						"1"
					]
				}
			},
			"response": []
		},
		{
			"name": "V2 DELETE deleteProduct",
			"request": {
				"method": "DELETE",
				"header": [],
				"url": {
					"raw": "http://localhost:8080/apitechu/v2/products/6",
					"protocol": "http",
					"host": [
						"localhost"
					],
					"port": "8080",
					"path": [
						"apitechu",
						"v2",
						"products",
						"6"
					]
				}
			},
			"response": []
		},
		{
			"name": "V2 GET users",
			"request": {
				"method": "GET",
				"header": [],
				"url": {
					"raw": "http://localhost:8080/apitechu/v2/users?$orderby=id",
					"protocol": "http",
					"host": [
						"localhost"
					],
					"port": "8080",
					"path": [
						"apitechu",
						"v2",
						"users"
					],
					"query": [
						{
							"key": "$orderby",
							"value": "id"
						}
					]
				}
			},
			"response": []
		},
		{
			"name": "V2 POST addUser",
			"request": {
				"method": "POST",
				"header": [],
				"body": {
					"mode": "raw",
					"raw": "{\n    \"id\":\"4\",\n    \"name\":\"Eustaquio Perez\",\n    \"age\": 78\n}",
					"options": {
						"raw": {
							"language": "json"
						}
					}
				},
				"url": {
					"raw": "http://localhost:8080/apitechu/v2/users",
					"protocol": "http",
					"host": [
						"localhost"
					],
					"port": "8080",
					"path": [
						"apitechu",
						"v2",
						"users"
					]
				}
			},
			"response": []
		},
		{
			"name": "V2 GET userById",
			"request": {
				"method": "GET",
				"header": [],
				"url": {
					"raw": "http://localhost:8080/apitechu/v2/users/1",
					"protocol": "http",
					"host": [
						"localhost"
					],
					"port": "8080",
					"path": [
						"apitechu",
						"v2",
						"users",
						"1"
					]
				}
			},
			"response": []
		},
		{
			"name": "V2 PUT updateUser",
			"request": {
				"method": "PUT",
				"header": [],
				"body": {
					"mode": "raw",
					"raw": "{\n    \"id\":\"1\",\n    \"name\":\"Juri Shlösser\",\n    \"age\": 39\n}",
					"options": {
						"raw": {
							"language": "json"
						}
					}
				},
				"url": {
					"raw": "http://localhost:8080/apitechu/v2/users/1",
					"protocol": "http",
					"host": [
						"localhost"
					],
					"port": "8080",
					"path": [
						"apitechu",
						"v2",
						"users",
						"1"
					]
				}
			},
			"response": []
		},
		{
			"name": "V2 DELETE deleteUser",
			"request": {
				"method": "DELETE",
				"header": [],
				"url": {
					"raw": "http://localhost:8080/apitechu/v2/users/2",
					"protocol": "http",
					"host": [
						"localhost"
					],
					"port": "8080",
					"path": [
						"apitechu",
						"v2",
						"users",
						"2"
					]
				}
			},
			"response": []
		},
		{
			"name": "V2 POST addPurchase",
			"request": {
				"method": "POST",
				"header": [],
				"body": {
					"mode": "raw",
					"raw": "{\n    \"id\":\"2\",\n    \"userId\":\"3\",\n    \"purchaseItems\":{\"2\":1,\"1\":1,\"3\":3}\n}",
					"options": {
						"raw": {
							"language": "json"
						}
					}
				},
				"url": {
					"raw": "http://localhost:8080/apitechu/v2/purchases",
					"protocol": "http",
					"host": [
						"localhost"
					],
					"port": "8080",
					"path": [
						"apitechu",
						"v2",
						"purchases"
					]
				}
			},
			"response": []
		},
		{
			"name": "V2 GET purchases",
			"request": {
				"method": "GET",
				"header": [],
				"url": {
					"raw": "http://localhost:8080/apitechu/v2/purchases",
					"protocol": "http",
					"host": [
						"localhost"
					],
					"port": "8080",
					"path": [
						"apitechu",
						"v2",
						"purchases"
					]
				}
			},
			"response": []
		}
	]
}